# Blender v2.80 (sub 75) OBJ File: ''
# www.blender.org
mtllib boot2.mtl
o boot.001
v 1.981961 -8.515774 -3.359699
v 1.418362 -7.820774 -5.344899
v 1.313261 -5.321674 -4.503699
v 1.885362 -6.027074 -2.488499
v 0.538261 -7.382174 -6.597799
v 0.080061 -4.324974 -7.460399
v -2.085039 -7.065674 -7.501999
v -2.085039 -4.091174 -8.128299
v 2.432761 -9.210674 -1.374399
v 1.820461 -6.732574 -0.473299
v 1.748261 2.335326 -4.226899
v 3.374261 6.196126 -4.964398
v 4.084861 6.196126 -2.312498
v 2.022861 1.601426 -2.008499
v 0.747762 2.974126 -7.483099
v 1.432961 6.196126 -8.190999
v 1.743961 0.909026 0.184801
v 3.374261 6.196126 0.339402
v 0.633561 6.196126 1.665301
v -0.509639 0.658625 2.561501
v 5.268361 15.865426 -5.466098
v 5.604861 15.860526 -2.308198
v 3.249062 15.842526 -9.177498
v -2.107038 6.196126 -8.989199
v -1.374438 15.879325 -10.034098
v 4.869061 15.865426 0.849602
v 1.752161 15.903226 2.488202
v 1.331161 -1.932774 -3.354099
v 1.388762 -2.648475 -1.305799
v 0.371661 -1.455674 -6.553799
v 2.008962 -3.927774 0.575501
v 5.398161 26.277325 -5.542198
v 6.066260 25.049923 -2.344497
v 3.572862 27.175926 -7.883098
v -0.281939 27.504826 -8.739898
v 5.083961 22.621426 3.887602
v 2.255561 19.408825 4.849602
v 3.182061 -8.245074 3.932901
v 4.004261 -10.749874 3.022501
v 2.304461 -6.334874 4.414201
v 0.980561 -4.737074 4.620601
v 1.368661 -6.675675 6.676901
v 2.755661 -7.955575 6.421501
v -0.552238 -4.657174 5.148201
v -0.255339 -6.456675 7.194301
v 3.657762 -9.699074 6.299601
v 4.482862 -12.111174 5.632801
v 3.026761 -8.889374 8.580502
v 1.736661 -7.488675 8.597601
v 1.787062 -7.488675 10.335101
v 3.082161 -8.883574 10.982701
v 4.593262 -13.516674 8.723500
v 3.854661 -10.851874 8.755301
v 3.835361 -10.851875 11.242202
v 4.566261 -13.516675 11.202801
v 0.599761 -7.488675 11.277102
v 1.376561 -8.818175 13.132001
v 2.106562 -10.851875 14.416701
v 2.472061 -13.516675 14.548401
v -0.587539 -7.488675 12.219201
v 0.166162 -7.235575 9.075602
v -1.404339 -6.982475 9.553701
v -2.090339 3.169626 -8.102999
v -2.085039 -1.147674 -7.225698
v -6.152139 -8.515774 -3.359699
v -6.055539 -6.027074 -2.488499
v -5.483438 -5.321674 -4.503699
v -5.588539 -7.820774 -5.344899
v -4.250239 -4.259774 -7.646499
v -4.708439 -7.251874 -6.970099
v -5.655039 -9.210674 -1.374399
v -5.516639 -6.732574 -0.473299
v -4.973639 2.400626 -4.239398
v -5.575039 1.678626 -2.013699
v -6.218639 6.196126 -2.312498
v -5.508139 6.196126 -4.964398
v -3.289939 3.079625 -7.771599
v -3.566839 6.196126 -8.519898
v -4.943539 0.947626 0.186001
v -3.513439 0.677126 2.558501
v -3.807639 6.196126 1.665301
v -5.508139 6.196126 0.339402
v -6.745338 15.908326 -2.308198
v -6.007839 15.910026 -5.467598
v -3.991939 15.884925 -8.955798
v -3.691139 15.909026 2.488702
v -6.007839 15.909926 0.851102
v -5.098939 -1.950874 -3.359699
v -5.680139 -2.667375 -1.312399
v -3.950839 -1.442474 -6.048499
v -5.287639 -3.922774 0.630701
v -6.630138 25.049923 -2.344497
v -5.962039 26.277325 -5.542198
v -4.136739 27.175926 -7.883098
v -3.122039 23.062626 2.452102
v -5.962039 23.822426 0.853302
v -4.106639 -10.749874 3.022501
v -4.642039 -8.245074 3.932901
v -4.720139 -6.378774 4.378401
v -4.698339 -7.995275 6.412901
v -3.989439 -6.605275 6.699101
v -4.145439 -4.737074 4.620601
v -2.886239 -6.429574 7.199201
v -3.115239 -4.657174 5.148201
v -4.224039 -12.111074 5.643101
v -4.708639 -9.701574 6.317501
v -4.562639 -8.924674 8.564001
v -3.777039 -8.985675 11.501001
v -3.142839 -7.821675 10.483201
v -3.705739 -7.488675 8.597601
v -4.488039 -13.516674 8.723500
v -3.817039 -13.516675 12.317000
v -4.141739 -10.851875 12.434101
v -4.786639 -10.851874 8.755301
v -2.388739 -8.984876 12.977601
v -2.060039 -7.679275 11.480902
v -2.419538 -13.516675 14.761400
v -2.589939 -11.143775 14.671201
v -2.555039 -7.235575 9.075602
v -0.587539 -10.851875 15.245602
v -0.473339 -8.895675 13.911302
v 1.356961 -8.819874 -2.490899
v 0.906661 -8.264574 -4.077099
v 0.203362 -7.914174 -5.078199
v -1.892738 -7.661274 -5.800699
v 1.717061 -9.375174 -0.904599
v 2.972761 -10.604975 2.608501
v 3.371861 -12.215474 5.429401
v 3.421762 -13.516674 9.247900
v 3.443361 -13.516674 8.254100
v 1.362862 -13.516675 11.678700
v -4.692039 -8.264574 -4.077099
v -5.142339 -8.819874 -2.490899
v -3.988739 -7.810074 -5.375699
v -4.745139 -9.375174 -0.904599
v -3.507939 -10.604975 2.608501
v -3.579139 -12.215374 5.435801
v -3.812639 -13.516674 8.254100
v -3.319139 -13.516675 10.929300
v -0.587539 -13.516675 15.533200
v -1.892838 -13.516675 13.159301
v -0.696138 -13.516675 14.109500
v -1.760339 6.196126 2.823501
v -2.037338 0.423325 3.373101
v -1.027638 15.909026 3.944702
v 4.170861 22.594925 4.413802
v -2.085039 -4.577375 5.675801
v -1.851639 -6.257374 7.714301
v -1.566439 -9.375174 -0.904599
v -1.332239 -10.604975 2.608501
v -1.224539 -12.223274 5.454001
v -1.116738 -13.516674 8.254100
v -0.940839 -13.516674 10.436701
v -1.672139 -8.819874 -2.490899
v -1.777839 -8.264574 -4.077099
v 7.161262 22.040726 -1.751398
v 6.511861 25.010826 -5.552298
v 3.685361 26.365425 -8.808098
v -0.474938 26.949825 -9.894897
v 0.540261 16.987827 5.100002
v 3.608361 17.927326 4.263602
v 3.861462 21.158424 4.638302
v 5.958861 19.071625 2.914602
v -6.481439 25.674026 -6.241498
v -7.615438 24.229626 -2.291198
v -4.026139 26.580025 -8.885098
v -2.956939 22.079525 3.389602
v 2.898561 21.431225 5.443202
v -6.604939 22.867924 1.335902
v 6.956161 18.841125 -1.606098
v 6.237262 23.707127 -5.400598
v 3.919161 25.487926 -8.477398
v -0.088038 25.700626 -9.504397
v 3.461561 9.263227 1.670702
v 4.905861 11.107625 1.403302
v 6.019961 13.024325 0.943102
v -6.413739 24.518623 -6.025698
v -7.132539 22.915024 -1.836798
v -3.803239 25.301826 -8.543298
v -2.892839 21.082523 3.443102
v 1.953661 20.295826 5.032502
v -6.007339 21.869324 1.650102
v -2.185739 5.192327 -9.453599
v 0.010661 6.838827 -9.515598
v 0.294062 4.240526 -8.795098
v -2.173239 2.369026 -8.831099
v 4.981861 10.814225 -5.509798
v 5.232461 11.058227 -2.207498
v 4.996962 8.292325 -2.208998
v 4.109661 8.144126 -5.334698
v 3.872762 9.767325 1.002402
v 1.233361 7.738925 2.485702
v 2.529161 5.948825 1.733601
v 4.391961 7.713626 0.135802
v -6.287239 -0.728074 -1.596599
v -6.357339 2.039426 -1.901999
v -5.330539 2.835025 -5.189498
v -5.590639 -0.223574 -4.578299
v -3.693139 4.063726 -8.831698
v -3.848639 1.096826 -7.867999
v -5.726839 2.509727 0.765201
v -5.558339 -0.172874 0.768101
v -1.982539 2.511426 3.650701
v -1.841339 5.453725 3.439601
v -4.027039 3.794926 2.866401
v -3.882739 1.088126 3.304501
v 0.462961 4.394626 2.814401
v -0.528739 6.405227 3.324402
v 3.499561 7.107027 -7.429799
v 2.393661 9.153026 -8.709398
v -0.043738 7.017427 -9.414699
v -2.197039 5.375326 -9.348099
v -2.221939 5.464326 -9.010499
v -0.134039 7.098627 -9.086498
v -2.149339 2.265226 -8.649599
v 0.256862 4.139627 -8.621499
v 0.133461 4.239526 -8.309599
v -2.095038 2.360826 -8.317299
v 5.094861 11.218625 -2.226198
v 4.877161 10.986526 -5.477998
v 4.545462 11.050025 -5.386198
v 4.748561 11.243825 -2.269898
v 3.933461 8.037126 -5.284698
v 4.837562 8.158925 -2.222198
v 4.490961 8.196725 -2.252898
v 3.609661 8.125926 -5.185798
v 1.088262 7.866426 2.397902
v 3.722261 9.903426 1.004402
v 3.434961 9.941525 0.808202
v 0.944161 7.895526 2.080302
v 4.283161 7.607026 -0.011898
v 2.532461 5.846625 1.559001
v 2.345761 5.876725 1.264501
v 3.965561 7.637925 -0.155698
v -5.181339 2.986427 -5.184399
v -6.211539 2.193225 -1.911399
v -5.862639 2.205325 -1.886999
v -4.860839 3.014325 -5.046399
v -6.133639 -0.870974 -1.578899
v -5.460739 -0.356374 -4.475899
v -5.129839 -0.340774 -4.362899
v -5.783939 -0.857774 -1.583799
v -3.610539 4.240226 -8.752799
v -3.435139 4.319726 -8.460399
v -3.738439 0.977326 -7.731699
v -3.463739 1.031026 -7.521499
v -5.603139 2.660827 0.696001
v -5.292439 2.664025 0.534801
v -5.413239 -0.314175 0.704901
v -5.096639 -0.294374 0.557101
v -3.943239 3.929027 2.724501
v -1.860939 5.590526 3.278301
v -1.923339 5.561625 2.935201
v -3.729439 3.897025 2.449301
v -1.955039 2.346125 3.519901
v -3.769839 0.933226 3.221501
v -3.524839 0.916726 2.972101
v -1.874339 2.308625 3.181401
v 0.462761 4.252925 2.656301
v 0.309562 4.232226 2.342302
v -0.658938 6.535026 3.212502
v -0.809639 6.527926 2.896702
v 3.422761 7.063026 -7.242398
v 3.134761 7.161626 -7.069798
v 2.241061 9.282525 -8.725799
v 1.993861 9.383025 -8.499299
v 5.425261 10.814225 -5.392798
v 5.901162 11.019826 -2.340598
v 5.783462 9.675826 -2.341298
v 4.989161 9.479125 -5.305298
v 4.988861 11.050025 -5.269298
v 5.417261 11.200126 -2.402898
v 5.665662 8.331826 -2.341998
v 5.159661 8.238925 -2.385898
v 4.053061 8.125926 -5.068898
v 4.553061 8.144126 -5.217698
v 5.352962 9.399526 -0.660798
v 5.015162 8.225326 -0.661498
v 4.509161 8.144126 -0.705398
v 4.766761 10.731326 -0.722498
v 5.250661 10.573726 -0.660098
v 4.836862 10.129626 0.385902
v 4.819661 9.238826 0.529502
v 4.701861 8.387025 0.330502
v 4.339062 8.353927 0.302802
v 4.498161 10.202525 0.352202
v 4.277661 8.894826 1.143202
v 4.386361 8.920026 1.162902
v 4.359761 9.142625 1.286402
v 4.263361 9.143626 1.269902
v 4.390761 9.364926 1.198302
v 4.306762 9.390426 1.185002
v 5.898761 9.892926 -2.252198
v 5.858661 9.385726 -2.252498
v 5.876462 9.399325 -2.661498
v 5.894761 9.907626 -2.656298
v 5.876462 9.399325 -2.924898
v 5.894761 9.907626 -2.919798
v 5.838161 9.879426 -1.807798
v 5.798162 9.372325 -1.807998
v 5.474462 9.907626 -2.656298
v 5.478461 9.892926 -2.252198
v 5.438461 9.385726 -2.252498
v 5.456161 9.399325 -2.661498
v 5.474462 9.907626 -2.919798
v 5.456161 9.399325 -2.924898
v 5.791060 9.807626 -3.020798
v 5.779962 9.499227 -3.023898
v 5.459762 9.499227 -3.023898
v 5.470861 9.807725 -3.020798
v 5.695161 9.463826 -1.708898
v 5.719460 9.771026 -1.708698
v 5.399561 9.771325 -1.708698
v 5.375261 9.463527 -1.708898
v 5.377861 9.372325 -1.807998
v 5.417961 9.879426 -1.807798
v 5.852361 9.424325 -2.999698
v 5.868762 9.882627 -2.994998
v 5.803262 9.848126 -1.733498
v 5.767161 9.390925 -1.733698
v 5.473561 9.882627 -2.994998
v 5.457061 9.424226 -2.999698
v 5.371962 9.390925 -1.733698
v 5.408061 9.848126 -1.733498
v 5.468461 10.887326 -5.370198
v 5.009662 11.131326 -5.240298
v 5.429761 11.266625 -2.551098
v 5.935962 11.074426 -2.485298
v 5.667861 8.257726 -2.474398
v 5.132961 8.165027 -2.518898
v 4.079862 8.063025 -5.044498
v 4.599562 8.086825 -5.198998
v 5.873961 10.698226 -2.831098
v 5.576661 10.545726 -5.001398
v 5.953862 10.867227 -2.266598
v 5.766362 8.492126 -2.267898
v 5.836162 8.823325 -2.630698
v 5.896062 10.491725 -2.613798
v 4.870461 8.474626 -4.860298
v 5.740561 8.589826 -2.836798
v 4.587461 8.284526 -5.419298
v 5.364161 10.662425 -5.575198
v 5.469861 10.322425 -5.205198
v 4.859661 8.670926 -5.079798
v 4.061961 8.265925 -5.263898
v 4.907862 10.909226 -5.444998
v 5.235861 8.394725 -2.315298
v 5.446561 11.056226 -2.330598
v 5.451161 11.219525 -2.386398
v 5.958161 11.029725 -2.321198
v 5.732961 8.322726 -2.319598
v 5.201362 8.226525 -2.365598
v 5.894561 10.654326 -2.666998
v 5.808261 8.654025 -2.683398
v 5.424662 10.824025 -5.530898
v 4.967161 11.070325 -5.401098
v 4.032661 8.109626 -5.201798
v 4.556062 8.129725 -5.357298
v 5.534961 10.482125 -5.162098
v 4.823961 8.517926 -5.017098
v 1.839361 0.560526 -4.196399
v 2.228961 2.434026 -4.570899
v 2.556062 1.589526 -2.038499
v 2.333362 -0.281274 -1.792299
v 0.842761 1.239127 -7.889098
v 1.093561 3.164526 -8.299799
v 2.240461 0.797525 0.485201
v 2.075562 -0.982074 0.848201
v -2.133739 1.452326 -8.552898
v -2.139039 3.388126 -9.006799
v -2.082639 0.245226 4.156401
v -2.129438 -1.432875 4.722201
v -0.507938 -1.310074 3.867301
v -0.341039 0.515925 3.228001
v -6.058439 -0.280475 -1.795199
v -6.127139 1.677026 -2.044799
v -5.438639 2.506027 -4.584898
v -5.377739 0.566026 -4.200398
v -3.521839 3.288627 -8.614899
v -3.625439 1.426026 -8.006299
v -5.400539 0.841326 0.486401
v -5.299339 -0.981474 0.855401
v -3.639739 -1.307775 3.866401
v -3.760739 0.536826 3.224401
v 1.080462 -1.157874 3.018601
v 1.164862 0.668526 2.034201
v 2.426561 1.761226 -2.040699
v 2.118562 2.613225 -4.560199
v 1.790961 2.695127 -4.468099
v 2.083362 1.817126 -2.000499
v 1.667861 0.449226 -4.130299
v 2.166661 -0.414774 -1.764999
v 1.818761 -0.381674 -1.746699
v 1.337562 0.525826 -4.043199
v 1.023961 3.346027 -8.215299
v 0.817162 3.430026 -7.945699
v 0.721662 1.130926 -7.754699
v 0.483261 1.218027 -7.513699
v 2.109861 0.941026 0.414301
v 1.773261 0.934326 0.318501
v 1.935661 -1.152675 0.800901
v 1.777162 -1.182974 0.704001
v -2.133139 3.571527 -8.895899
v -2.118439 3.658626 -8.557299
v -2.122539 1.340626 -8.373098
v -2.097339 1.420826 -8.033298
v -0.583639 -1.490574 3.786301
v -2.131139 -1.599275 4.622101
v -2.126039 -1.653474 4.292201
v -0.730239 -1.582574 3.482101
v -2.078339 0.342726 3.965301
v -0.399439 0.611126 3.054801
v -0.565739 0.504125 2.766101
v -2.077538 0.238625 3.631201
v -5.306039 2.668527 -4.555398
v -5.982939 1.832126 -2.051199
v -5.634539 1.847226 -2.021799
v -4.985939 2.704726 -4.418599
v -5.903639 -0.424774 -1.786399
v -5.233539 0.433526 -4.118199
v -4.907939 0.467426 -3.994399
v -5.554639 -0.414575 -1.810099
v -3.434039 3.466827 -8.539598
v -3.247739 3.550327 -8.255299
v -3.526439 1.308426 -7.857498
v -3.277039 1.366126 -7.618798
v -3.539539 -1.482374 3.801101
v -5.152439 -1.133675 0.828301
v -4.829939 -1.146275 0.696201
v -3.327239 -1.559875 3.533801
v -5.269339 0.981326 0.401601
v -3.663139 0.649826 3.073901
v -3.413639 0.583425 2.837501
v -4.944139 0.965325 0.273301
v 0.978662 -1.332774 2.982401
v 0.755362 -1.432974 2.732301
v 1.058461 0.763626 1.871001
v 0.795861 0.677726 1.656001
v 1.916862 -7.891474 -3.311199
v 0.978961 -11.829674 -3.620599
v 0.557161 -11.482174 -5.186499
v 1.353261 -7.196574 -5.296399
v 1.291761 -8.195675 -2.442399
v 0.511161 -11.981774 -2.935399
v -0.101539 -11.262875 -6.174799
v 0.473162 -6.757974 -6.549399
v -2.065039 -11.104674 -6.887999
v -2.150239 -6.441474 -7.453599
v -5.653738 -7.196574 -5.296399
v -4.687139 -11.482174 -5.186499
v -5.109039 -11.829674 -3.620599
v -6.217339 -7.891474 -3.311199
v -4.353239 -11.981774 -2.935399
v -5.207439 -8.195675 -2.442399
v -4.773639 -6.627674 -6.921599
v -4.028439 -11.197774 -6.468400
v -1.755939 -11.981774 -2.935399
v -1.737239 -8.195675 -2.442399
v -4.065839 -14.257674 -3.881599
v -3.785839 -14.257674 -5.028199
v -1.956638 -14.257674 -5.028199
v -1.875339 -14.257674 -3.881599
v -3.348439 -14.257674 -5.966799
v -2.044939 -14.257674 -6.273999
v -1.839739 -14.257674 -3.379899
v -3.564039 -14.257674 -3.379899
v -0.741439 -14.257674 -5.751799
v -0.304139 -14.257674 -5.028199
v -0.024038 -14.257674 -3.881599
v -0.334639 -14.257674 -3.379899
v 1.912662 -8.078175 -3.866999
v 1.503861 -7.580474 -5.288899
v 1.147061 -7.529874 -5.501199
v 1.815361 -8.077974 -3.844199
v 1.222961 -9.043974 -2.521899
v 0.659862 -8.492474 -4.097199
v 1.469562 -8.057175 -5.435899
v 1.874862 -8.551474 -4.023899
v 0.500961 -7.091474 -6.625599
v 0.329661 -7.178774 -6.432899
v -0.916239 -8.134774 -5.118699
v 0.488361 -7.574474 -6.754399
v -2.110939 -6.890474 -7.554999
v -2.110139 -6.914174 -7.463399
v -2.126039 -8.132174 -5.126099
v -2.110538 -7.373374 -7.684099
v -4.821939 -6.887274 -7.160399
v -5.713039 -7.494074 -5.342999
v -5.618439 -7.496774 -5.310799
v -4.788639 -6.910774 -7.068999
v -3.335739 -8.129574 -5.133499
v -4.470539 -8.585875 -3.829999
v -5.674639 -7.968574 -5.495699
v -4.808539 -7.370174 -7.289399
v -6.222539 -8.284174 -3.279599
v -6.122739 -8.276875 -3.275599
v -4.842539 -9.028674 -2.564799
v -4.985439 -9.198874 -2.078499
v -6.181639 -8.754675 -3.443699
v -6.009239 -8.838875 -1.238499
v -5.913739 -8.821574 -1.262999
v -4.821739 -9.509874 -1.189999
v -5.969939 -9.305274 -1.414399
v -4.403639 -10.521975 3.043101
v -4.308839 -10.503974 3.016901
v -3.654239 -10.069275 0.858301
v -4.365139 -11.098374 2.863401
v -4.254239 -11.670174 5.375201
v -4.154939 -11.669174 5.386501
v -3.439239 -11.653174 3.903901
v -4.223739 -12.225075 5.146201
v -4.550939 -13.259874 8.777500
v -4.451138 -13.259774 8.773900
v -3.609739 -12.973874 6.443301
v -4.337739 -12.959774 6.442301
v -4.145739 -13.264874 10.749300
v -4.049339 -13.264874 10.729501
v -3.290639 -14.251874 8.609000
v -4.413639 -14.044174 8.787700
v -3.869039 -13.270475 12.362901
v -2.484138 -13.270576 14.851100
v -2.430139 -13.263975 14.767100
v -3.775939 -13.263975 12.326900
v -2.900739 -14.251874 9.995200
v -1.706439 -14.251875 12.541600
v -2.466239 -14.251875 14.822701
v -3.838539 -14.251875 12.351200
v -0.589438 -13.270576 15.573100
v -0.574439 -13.263975 15.482600
v -0.631139 -14.251875 12.624600
v -0.584639 -14.251875 15.542100
v 0.823861 -13.270675 15.594400
v 2.513762 -13.270675 14.665000
v 2.457961 -13.263875 14.592501
v 0.799861 -13.263975 15.497500
v 0.444262 -14.251875 12.707701
v 1.636961 -14.251875 11.705200
v 2.494561 -14.251875 14.639900
v 0.815661 -14.251875 15.561001
v 3.928962 -13.270775 12.804400
v 4.715661 -13.264976 11.162400
v 4.616462 -13.264976 11.171901
v 3.841461 -13.263875 12.756300
v 2.829661 -14.251874 10.702801
v 3.105162 -14.251874 9.994901
v 4.668861 -14.251875 11.152101
v 3.898861 -14.251875 12.787601
v 4.641562 -13.259174 8.719600
v 4.542361 -13.259074 8.729800
v 3.428561 -14.251874 8.608700
v 4.590161 -14.251874 8.571200
v 4.598762 -12.111275 6.172401
v 4.075061 -10.488874 3.099701
v 3.978961 -10.490375 3.127301
v 4.499561 -12.104374 6.183501
v 3.328961 -12.974174 6.443201
v 2.926062 -11.647675 3.892801
v 4.029661 -11.063874 2.917601
v 4.542662 -12.980874 6.438601
v 2.418861 -8.847174 -1.588799
v 2.322162 -8.847975 -1.563299
v 1.623861 -10.060874 0.841701
v 2.381661 -9.320774 -1.744699
v 1.354561 -12.974074 6.443201
v 0.849361 -11.649474 3.896401
v -0.160739 -10.063675 0.847301
v -0.669939 -9.189875 -2.104799
v -1.111138 -8.665074 -3.603999
v -0.004539 -14.251874 9.995001
v 1.675561 -14.251874 9.995001
v -1.462139 -14.251874 9.995100
v -1.818238 -14.251874 8.608300
v -0.311039 -14.251874 8.608900
v -0.619739 -12.973974 6.443301
v -2.148239 -12.973974 6.443301
v -2.333339 -11.652274 3.901901
v -1.227339 -11.651274 3.900001
v -2.799739 -10.067875 0.855601
v -1.945239 -10.066574 0.852901
v -3.692339 -9.422874 -1.438899
v -2.562939 -9.335774 -1.687699
v -2.882039 -8.837674 -3.110799
v 1.503861 -14.251874 8.599100
vn 0.7049 -0.5939 -0.3878
vn 0.6850 -0.5225 -0.5077
vn 0.9493 0.1161 -0.2921
vn 0.9897 0.1192 -0.0796
vn 0.4461 -0.5768 -0.6843
vn 0.6197 0.0134 -0.7847
vn 0.0423 -0.6047 -0.7953
vn 0.0393 0.0566 -0.9976
vn 0.7420 -0.5345 -0.4047
vn 0.9888 0.1194 -0.0898
vn 0.9149 -0.2930 -0.2776
vn 0.8752 -0.3072 -0.3736
vn 0.9602 -0.2793 -0.0040
vn 0.9515 -0.2919 -0.0971
vn 0.6236 -0.2581 -0.7379
vn 0.5621 -0.2361 -0.7927
vn 0.9256 -0.0391 0.3765
vn 0.7615 -0.1999 0.6166
vn 0.4352 -0.0350 0.8996
vn 0.5790 0.1886 0.7932
vn 0.9496 -0.1053 -0.2951
vn 0.9929 -0.1021 0.0609
vn 0.5859 -0.0562 -0.8084
vn -0.0504 -0.1899 -0.9805
vn -0.1031 0.0103 -0.9946
vn 0.8044 -0.2093 0.5560
vn 0.4333 -0.3501 0.8305
vn 0.9872 -0.0478 -0.1520
vn 0.9776 -0.0246 -0.2089
vn 0.7365 -0.0363 -0.6755
vn 0.9864 0.0277 -0.1620
vn 0.8830 -0.0144 -0.4691
vn 0.9950 -0.0503 -0.0864
vn 0.5205 0.0822 -0.8499
vn 0.0126 0.1095 -0.9939
vn 0.9095 -0.1942 0.3676
vn -0.9447 -0.0788 0.3183
vn 0.9225 0.3828 -0.0498
vn 0.8152 -0.4072 -0.4118
vn 0.8380 0.4940 0.2318
vn 0.4757 0.5775 0.6635
vn 0.4912 0.7584 0.4284
vn 0.8011 0.5632 0.2026
vn 0.2898 0.5915 0.7524
vn 0.2623 0.8396 0.4756
vn 0.9215 0.3807 0.0772
vn 0.8522 -0.4331 -0.2935
vn 0.8513 0.5226 0.0460
vn 0.5239 0.8420 0.1290
vn 0.4194 0.8875 0.1909
vn 0.8001 0.5372 0.2671
vn 0.7723 -0.6269 -0.1025
vn 0.9462 0.3212 0.0379
vn 0.9179 0.3110 0.2464
vn 0.8028 -0.5530 0.2229
vn 0.2213 0.9345 0.2789
vn 0.4231 0.7056 0.5685
vn 0.5799 0.3457 0.7377
vn 0.5060 -0.5904 0.6288
vn 0.0149 0.8708 0.4914
vn 0.2154 0.9554 0.2019
vn -0.0638 0.9578 0.2802
vn -0.0258 -0.2436 -0.9695
vn -0.1573 0.0295 -0.9871
vn -0.7664 -0.6025 -0.2228
vn -0.9975 0.0688 0.0164
vn -0.9505 0.1635 -0.2642
vn -0.6915 -0.5470 -0.4718
vn -0.6084 0.1731 -0.7745
vn -0.4882 -0.5320 -0.6919
vn -0.7054 -0.7079 -0.0363
vn -0.9750 -0.0168 0.2214
vn -0.9179 -0.1283 -0.3754
vn -0.9977 -0.0644 -0.0200
vn -0.9952 -0.0973 -0.0051
vn -0.9190 -0.1324 -0.3714
vn -0.5874 -0.2361 -0.7741
vn -0.6234 -0.1470 -0.7680
vn -0.9249 0.0271 0.3793
vn -0.6798 0.1800 0.7110
vn -0.5587 0.0202 0.8291
vn -0.8331 -0.0883 0.5460
vn -0.9998 -0.0207 0.0003
vn -0.9291 -0.0325 -0.3684
vn -0.6533 0.0006 -0.7571
vn -0.5294 -0.0095 0.8483
vn -0.8284 -0.0334 0.5591
vn -0.9491 0.0765 -0.3056
vn -0.9968 0.0733 0.0319
vn -0.8097 0.1469 -0.5681
vn -0.9784 0.0488 0.2011
vn -0.9990 0.0124 -0.0436
vn -0.8850 0.0006 -0.4657
vn -0.5155 0.0745 -0.8536
vn -0.3775 0.0348 0.9253
vn -0.8509 0.0048 0.5253
vn -0.6298 -0.7351 -0.2509
vn -0.9917 -0.1264 0.0245
vn -0.9777 0.1219 0.1712
vn -0.9717 0.1885 0.1422
vn -0.6720 0.5686 0.4745
vn -0.6847 0.4345 0.5851
vn -0.3747 0.7622 0.5278
vn -0.4185 0.5313 0.7366
vn -0.7257 -0.5991 -0.3383
vn -0.9939 -0.0814 -0.0747
vn -0.9324 0.2931 0.2117
vn -0.7489 0.5207 0.4100
vn -0.5266 0.7783 0.3419
vn -0.6282 0.6830 0.3726
vn -0.6887 -0.7224 -0.0616
vn -0.6536 -0.7177 0.2401
vn -0.9047 0.1299 0.4057
vn -0.9978 -0.0093 0.0664
vn -0.4725 0.6404 0.6055
vn -0.3808 0.8369 0.3931
vn -0.4957 -0.6482 0.5780
vn -0.5632 0.2574 0.7852
vn -0.3311 0.8845 0.3287
vn -0.0169 0.3422 0.9395
vn -0.0358 0.6544 0.7553
vn 0.0000 -0.9438 -0.3304
vn 0.0136 -0.9139 -0.4057
vn 0.0858 -0.8820 -0.4634
vn -0.0000 -1.0000 -0.0000
vn 0.0543 -0.9694 -0.2394
vn -0.0197 -0.9171 -0.3981
vn -0.1398 -0.8764 -0.4608
vn -0.1065 -0.9604 -0.2575
vn -0.0343 -0.5959 0.8023
vn -0.0374 -0.0076 0.9993
vn -0.0092 0.2894 0.9572
vn -0.0977 -0.0121 0.9951
vn -0.3347 0.1956 0.9218
vn -0.0801 0.6279 0.7742
vn -0.0797 0.8639 0.4973
vn -0.0000 -0.9101 -0.4143
vn -0.0001 -0.8894 -0.4572
vn -0.0001 -0.9767 -0.2145
vn 0.9353 0.3503 0.0506
vn 0.9785 0.1544 0.1365
vn 0.9288 0.2808 -0.2419
vn 0.7386 0.6509 -0.1752
vn 0.4999 0.2598 -0.8262
vn 0.5333 0.6673 -0.5199
vn -0.0365 0.3939 -0.9184
vn 0.0189 0.8999 -0.4356
vn 0.0827 0.0444 0.9956
vn 0.3194 -0.2230 0.9210
vn 0.4275 -0.2044 0.8806
vn 0.5587 -0.1386 0.8177
vn 0.8674 0.0791 0.4913
vn 0.8171 -0.0738 0.5717
vn -0.7274 0.6844 -0.0503
vn -0.8494 0.3254 -0.4155
vn -0.9788 0.2028 0.0268
vn -0.6090 0.7485 0.2622
vn -0.5710 0.6764 -0.4653
vn -0.5022 0.2804 -0.8180
vn -0.2046 0.6573 0.7253
vn -0.3404 0.3475 0.8737
vn -0.2291 0.5257 0.8192
vn -0.1321 0.7339 0.6663
vn -0.8239 0.0914 0.5593
vn -0.5145 0.6368 0.5742
vn 0.9878 -0.0568 0.1449
vn 0.8145 -0.2334 -0.5312
vn 0.6424 -0.1144 -0.7578
vn 0.0487 -0.2842 -0.9575
vn 0.4413 -0.2194 0.8701
vn 0.5322 -0.2393 0.8121
vn 0.7699 -0.1908 0.6090
vn -0.8961 -0.1317 -0.4240
vn -0.9436 -0.3251 0.0622
vn -0.4389 -0.3028 -0.8460
vn -0.3872 0.0246 0.9217
vn -0.3216 -0.0739 0.9440
vn -0.6651 -0.1691 0.7274
vn -0.2576 0.0996 -0.9611
vn 0.0786 0.1014 -0.9917
vn 0.5297 -0.5047 -0.6816
vn 0.1195 -0.5280 -0.8408
vn 0.9095 0.1440 -0.3899
vn 0.9217 0.3348 0.1959
vn 0.9122 -0.4074 -0.0433
vn 0.8013 -0.5935 -0.0748
vn 0.6578 0.2407 0.7137
vn 0.2556 0.2900 0.9223
vn 0.6928 -0.2964 0.6574
vn 0.8832 -0.3340 0.3291
vn -0.9060 -0.4214 0.0392
vn -0.9548 0.2945 -0.0402
vn -0.8961 0.3725 -0.2413
vn -0.7965 -0.4368 -0.4182
vn -0.6774 0.1050 -0.7281
vn -0.4499 -0.5201 -0.7260
vn -0.8909 0.2881 0.3512
vn -0.7542 -0.4259 0.4998
vn 0.1984 -0.2234 0.9543
vn -0.3141 0.3692 0.8747
vn -0.6658 0.3981 0.6311
vn -0.4394 -0.2548 0.8614
vn 0.5648 -0.3108 0.7645
vn 0.0905 0.2462 0.9650
vn 0.8595 -0.3522 -0.3705
vn 0.5303 0.1445 -0.8354
vn -0.4250 0.6045 -0.6738
vn -0.5681 0.6028 -0.5603
vn -0.6660 0.7077 -0.2358
vn -0.6147 0.7095 -0.3445
vn 0.5491 -0.8010 -0.2384
vn 0.6306 -0.7743 0.0521
vn 0.5502 -0.7071 0.4443
vn 0.6779 -0.7285 0.0988
vn 0.4447 0.8750 0.1913
vn 0.4949 0.7872 -0.3678
vn 0.1004 0.9503 -0.2946
vn 0.0498 0.9838 0.1721
vn 0.2013 -0.9576 0.2059
vn 0.3653 -0.9244 -0.1100
vn -0.0993 -0.9902 -0.0986
vn -0.1738 -0.9444 0.2790
vn -0.2672 0.7443 0.6121
vn 0.1647 0.7108 0.6839
vn -0.2164 0.8491 0.4818
vn -0.5018 0.8105 0.3020
vn 0.4984 -0.8451 -0.1936
vn 0.6640 -0.7477 0.0057
vn 0.4774 -0.7907 -0.3833
vn 0.1277 -0.8736 -0.4696
vn -0.4805 0.8736 0.0767
vn -0.4833 0.8755 0.0057
vn -0.0362 0.9991 0.0228
vn -0.1840 0.9545 0.2345
vn -0.3858 -0.9211 0.0521
vn -0.2217 -0.9212 -0.3198
vn 0.1286 -0.9611 -0.2443
vn 0.0383 -0.9986 0.0373
vn -0.7031 0.6780 -0.2146
vn -0.5840 0.8008 0.1327
vn 0.1052 -0.8716 -0.4788
vn 0.4239 -0.8397 -0.3395
vn -0.5302 0.8464 -0.0509
vn -0.1560 0.9467 -0.2819
vn -0.1931 -0.8963 0.3991
vn 0.1834 -0.9462 0.2666
vn -0.5976 0.8015 -0.0208
vn -0.5969 0.7221 0.3497
vn -0.6722 0.7379 0.0603
vn -0.4128 0.8109 -0.4148
vn 0.5325 -0.6551 0.5360
vn 0.0460 -0.7397 0.6713
vn 0.3908 -0.8101 0.4371
vn 0.6567 -0.7163 0.2361
vn 0.6504 -0.7398 0.1725
vn 0.5676 -0.7920 -0.2250
vn -0.3864 0.7002 0.6003
vn -0.5817 0.7706 0.2603
vn 0.5116 -0.7886 0.3412
vn 0.1132 -0.7695 0.6286
vn 0.0757 0.5816 -0.8099
vn -0.2387 0.7638 -0.5997
vn 0.9300 0.3275 -0.1671
vn 0.8362 0.5324 0.1319
vn 0.9961 -0.0873 -0.0096
vn 0.9215 -0.3158 -0.2260
vn 0.4472 0.8872 -0.1133
vn 0.3324 0.9349 0.1243
vn 0.8021 -0.5971 0.0005
vn 0.1815 -0.9833 -0.0113
vn 0.0435 -0.9988 0.0241
vn 0.5428 -0.8252 -0.1561
vn 0.9452 -0.0951 0.3124
vn 0.6043 -0.7597 0.2400
vn 0.1462 -0.9810 0.1278
vn 0.2329 0.8796 0.4147
vn 0.6710 0.5831 0.4581
vn 0.5924 0.5421 0.5960
vn 0.8841 -0.0817 0.4601
vn 0.5506 -0.7139 0.4326
vn 0.0546 -0.9209 0.3860
vn 0.1128 0.7985 0.5913
vn 0.0311 -0.6962 0.7172
vn 0.4871 -0.5061 0.7117
vn 0.3360 -0.0649 0.9396
vn -0.1689 -0.0764 0.9827
vn 0.4355 0.3935 0.8096
vn 0.0341 0.5498 0.8346
vn 0.7479 0.6603 0.0678
vn 0.6872 -0.7254 0.0393
vn 0.7027 -0.7115 0.0037
vn 0.7144 0.6996 0.0092
vn 0.6809 -0.7050 -0.1985
vn 0.7046 0.6803 -0.2016
vn 0.6861 0.6605 0.3050
vn 0.6509 -0.7228 0.2322
vn 0.0000 0.9998 0.0181
vn 0.0000 0.9994 0.0332
vn 0.0000 -0.9995 -0.0316
vn 0.0000 -0.9999 -0.0168
vn 0.0000 0.9871 -0.1600
vn -0.0000 -0.9871 -0.1602
vn 0.1222 0.1275 -0.9843
vn 0.1200 -0.1148 -0.9861
vn -0.0000 -0.1545 -0.9880
vn -0.0000 0.1661 -0.9861
vn 0.1127 -0.1318 0.9848
vn 0.1183 0.1093 0.9869
vn 0.0001 0.1458 0.9893
vn 0.0001 -0.1703 0.9854
vn 0.0000 -0.9931 0.1169
vn 0.0000 0.9738 0.2275
vn 0.5055 -0.5204 -0.6882
vn 0.5215 0.5062 -0.6869
vn 0.4949 0.4618 0.7361
vn 0.4608 -0.5650 0.6844
vn 0.0000 0.7058 -0.7084
vn 0.0001 -0.7090 -0.7053
vn 0.0001 -0.7317 0.6816
vn 0.0001 0.6507 0.7593
vn 0.7679 0.5598 -0.3114
vn 0.3982 0.8823 -0.2509
vn 0.3516 0.9357 0.0287
vn 0.8004 0.5983 -0.0362
vn 0.5652 -0.8249 0.0068
vn 0.1631 -0.9828 0.0862
vn 0.0055 -0.9910 -0.1336
vn 0.5056 -0.8246 -0.2536
vn 0.9902 -0.0405 -0.1333
vn 0.9768 0.1128 -0.1822
vn 0.6852 0.0596 0.7259
vn 0.6344 -0.1922 0.7487
vn 0.9899 -0.0816 0.1159
vn 0.9911 -0.0339 -0.1284
vn 0.8828 -0.3039 -0.3582
vn 0.8298 -0.4842 -0.2774
vn 0.3611 -0.2746 -0.8912
vn 0.3912 -0.0467 -0.9191
vn 0.8130 -0.2942 -0.5025
vn 0.8838 -0.3466 -0.3143
vn -0.2729 -0.1828 -0.9445
vn -0.1805 0.1769 -0.9675
vn -0.0579 -0.1643 0.9847
vn -0.0482 0.2018 0.9782
vn 0.2201 0.7859 0.5778
vn 0.7178 0.4700 0.5137
vn 0.5985 -0.6019 0.5286
vn 0.0895 -0.7865 0.6110
vn 0.9895 -0.0400 -0.1386
vn 0.9494 -0.3037 -0.0801
vn 0.5700 0.3545 -0.7412
vn 0.1578 0.6737 -0.7220
vn -0.1577 -0.7610 -0.6293
vn 0.3199 -0.6617 -0.6781
vn 0.9261 -0.0951 -0.3652
vn 0.8869 -0.3216 -0.3315
vn 0.7466 -0.5797 -0.3263
vn 0.9727 0.1643 -0.1641
vn 0.9676 0.2439 0.0653
vn 0.8584 -0.4807 -0.1789
vn 0.5581 -0.5296 -0.6388
vn 0.6735 0.1436 -0.7251
vn 0.8684 0.3350 0.3657
vn 0.9101 -0.3635 0.1992
vn -0.0693 -0.5458 -0.8350
vn -0.0308 0.1628 -0.9862
vn 0.0018 0.5799 0.8147
vn -0.0158 -0.1115 0.9936
vn 0.4739 -0.1393 0.8695
vn 0.3817 0.6124 0.6923
vn -0.9152 -0.3928 -0.0902
vn -0.9430 0.3221 0.0834
vn -0.9170 0.3006 -0.2621
vn -0.7871 -0.4596 -0.4114
vn -0.6340 0.1655 -0.7554
vn -0.5837 -0.4982 -0.6412
vn -0.8198 0.3871 0.4219
vn -0.8800 -0.3722 0.2950
vn -0.6968 -0.1807 0.6941
vn -0.5553 0.5428 0.6300
vn 0.7155 -0.0750 0.6946
vn 0.5397 0.6410 0.5458
vn 0.5371 0.8021 0.2612
vn 0.6163 0.7843 0.0707
vn 0.2915 0.9339 0.2070
vn 0.1899 0.9204 0.3417
vn 0.0852 -0.9534 -0.2894
vn 0.2783 -0.9123 -0.3004
vn -0.1067 -0.9383 -0.3291
vn -0.2737 -0.9380 -0.2126
vn 0.5098 0.7463 -0.4278
vn 0.2934 0.9533 -0.0718
vn 0.0952 -0.9545 -0.2825
vn -0.2692 -0.9597 0.0804
vn 0.3245 0.8857 0.3320
vn -0.0869 0.9674 0.2377
vn 0.5412 -0.8409 -0.0004
vn 0.2868 -0.9420 -0.1743
vn -0.0192 0.7825 -0.6223
vn -0.0131 0.9685 -0.2488
vn -0.0409 -0.9730 -0.2272
vn -0.0008 -0.9733 0.2296
vn 0.3338 -0.7969 0.5035
vn -0.0173 -0.7749 0.6318
vn -0.0157 -0.9867 0.1620
vn 0.1834 -0.9619 0.2028
vn 0.0146 0.9776 0.2101
vn -0.0298 0.9897 0.1399
vn -0.2751 0.9423 -0.1906
vn 0.0351 0.9542 -0.2971
vn -0.5155 0.8564 0.0278
vn -0.4643 0.8444 0.2673
vn -0.0698 0.9343 0.3495
vn -0.1972 0.9580 0.2081
vn -0.3993 -0.8810 -0.2537
vn -0.1752 -0.9221 -0.3450
vn 0.1899 -0.9524 -0.2385
vn 0.0051 -0.9438 -0.3305
vn -0.4624 0.7661 -0.4465
vn -0.2922 0.9523 -0.0883
vn -0.1229 -0.9492 -0.2896
vn 0.1999 -0.9794 0.0281
vn -0.4713 -0.7931 0.3859
vn -0.4389 -0.8983 0.0176
vn -0.1087 -0.9791 -0.1718
vn -0.2469 -0.9654 0.0838
vn -0.2508 0.9101 0.3300
vn -0.0805 0.9641 0.2530
vn 0.2521 0.9677 -0.0054
vn 0.1269 0.9714 0.2007
vn 0.5075 -0.7390 0.4430
vn 0.2779 -0.9513 0.1332
vn 0.0368 0.9876 0.1525
vn -0.2531 0.9644 -0.0761
vn 0.9723 -0.2330 0.0184
vn 0.9455 -0.3089 0.1029
vn 0.8671 -0.2302 -0.4418
vn 0.8527 -0.1711 -0.4936
vn 0.5401 -0.2172 0.8131
vn 0.4780 -0.2754 0.8341
vn 0.5896 -0.1847 -0.7863
vn 0.5469 -0.1384 -0.8257
vn 0.0672 -0.1524 -0.9860
vn 0.0552 -0.1192 -0.9913
vn -0.8712 -0.2079 -0.4448
vn -0.8812 -0.2570 -0.3969
vn -0.9165 -0.3377 0.2142
vn -0.9560 -0.2767 0.0976
vn -0.3711 -0.2531 0.8934
vn -0.4207 -0.2098 0.8826
vn -0.5273 -0.1686 -0.8328
vn -0.5726 -0.2097 -0.7926
vn 0.0000 -0.1605 0.9870
vn 0.0000 -0.1291 0.9916
vn -0.6225 -0.7623 0.1772
vn -0.5756 -0.7918 -0.2043
vn -0.4294 -0.7160 -0.5504
vn 0.0552 -0.7148 -0.6972
vn 0.0000 -0.7719 0.6357
vn -0.2199 -0.7348 0.6416
vn 0.4351 -0.7291 -0.5283
vn 0.5796 -0.7777 -0.2436
vn 0.6278 -0.7729 0.0926
vn 0.2857 -0.7292 0.6218
vn 0.7443 0.6667 0.0398
vn 0.6701 0.7378 -0.0819
vn -0.1351 0.8883 0.4389
vn 0.0715 0.9526 0.2957
vn 0.0178 -0.9522 -0.3050
vn -0.0116 -0.9460 -0.3239
vn 0.6374 -0.5694 -0.5191
vn 0.6564 -0.6453 -0.3909
vn 0.4538 0.8123 -0.3663
vn -0.0481 0.9251 0.3766
vn -0.0007 -0.9450 -0.3272
vn 0.4622 -0.4389 -0.7705
vn 0.0865 0.8204 -0.5652
vn 0.0172 0.9682 0.2497
vn -0.0002 -0.9516 -0.3075
vn 0.0723 -0.4376 -0.8963
vn -0.4720 0.7580 -0.4502
vn -0.7353 0.6772 -0.0255
vn -0.0790 0.9470 0.3115
vn -0.0345 0.9648 0.2608
vn -0.0004 -0.9435 -0.3313
vn -0.0094 -0.9425 -0.3341
vn -0.6727 -0.5882 -0.4490
vn -0.4762 -0.4001 -0.7831
vn -0.7984 0.5858 0.1394
vn -0.0813 0.9489 0.3048
vn 0.0078 -0.9418 -0.3360
vn 0.0170 -0.9432 -0.3318
vn -0.6930 -0.6647 -0.2792
vn -0.7559 0.5467 0.3602
vn -0.0866 0.9412 0.3265
vn -0.0673 -0.9624 -0.2633
vn -0.7342 -0.6769 -0.0524
vn -0.6854 0.5930 0.4226
vn -0.0585 0.9089 0.4129
vn 0.0861 -0.9255 -0.3688
vn -0.6317 -0.7418 -0.2254
vn -0.7329 0.6158 0.2892
vn -0.0583 0.9003 0.4313
vn -0.0376 -0.8873 -0.4597
vn -0.7324 -0.5881 -0.3430
vn 0.9040 0.1461 0.4018
vn 0.0075 0.9763 0.2161
vn -0.0087 -0.8746 -0.4848
vn -0.6847 -0.6246 -0.3756
vn -0.7250 0.6765 0.1293
vn 0.0001 1.0000 0.0010
vn -0.1083 -0.9621 -0.2501
vn -0.8049 -0.5831 -0.1100
vn -0.7274 0.6360 0.2576
vn -0.5202 0.6036 0.6042
vn -0.0467 0.9977 0.0487
vn -0.0619 0.9979 0.0211
vn -0.4984 -0.6502 0.5734
vn -0.6923 -0.6834 0.2316
vn -0.1456 0.6333 0.7601
vn -0.0139 0.9974 0.0713
vn -0.1378 -0.6815 0.7187
vn 0.1897 0.6184 0.7626
vn 0.5088 0.6263 0.5906
vn 0.0490 0.9972 0.0557
vn 0.0163 0.9977 0.0652
vn 0.4821 -0.6751 0.5584
vn 0.1801 -0.6669 0.7230
vn 0.6499 0.6475 0.3980
vn 0.7522 0.6392 0.1604
vn 0.0002 1.0000 0.0006
vn 0.0585 0.9976 0.0358
vn 0.7214 -0.6761 0.1497
vn 0.6134 -0.6970 0.3714
vn 0.7822 0.6113 0.1203
vn 0.0212 0.9792 0.2019
vn -0.0036 -0.9655 -0.2603
vn 0.6293 -0.7447 -0.2222
vn 0.8173 0.5520 0.1653
vn 0.7503 0.6555 0.0857
vn 0.0951 0.9202 0.3798
vn 0.1106 0.8964 0.4293
vn -0.0035 -0.8747 -0.4847
vn 0.0271 -0.8842 -0.4663
vn 0.7257 -0.5485 -0.4153
vn 0.6701 -0.6287 -0.3946
vn 0.7198 0.6935 0.0320
vn 0.0730 0.9494 0.3054
vn -0.1187 -0.9225 -0.3673
vn 0.6064 -0.6809 -0.4106
vn -0.0000 -0.8741 -0.4857
vn -0.0000 -0.8872 -0.4614
vn 0.0003 -0.9273 -0.3744
vn 0.0055 -0.9513 -0.3081
vn -0.0000 -0.9647 -0.2635
vn -0.0006 -0.9648 -0.2630
vn -0.0003 -0.8744 -0.4852
vn -0.0000 -0.8745 -0.4850
vn 0.0003 -0.9298 -0.3681
vn 0.0003 -0.9287 -0.3708
vn 0.0067 -0.9530 -0.3030
vn 0.0062 -0.9524 -0.3049
vn -0.0000 -0.9642 -0.2651
usemtl default
s 1
f 1//1 2//2 3//3 4//4
f 2//2 5//5 6//6 3//3
f 5//5 7//7 8//8 6//6
f 9//9 1//1 4//4 10//10
f 11//11 12//12 13//13 14//14
f 15//15 16//16 12//12 11//11
f 17//17 18//18 19//19 20//20
f 14//14 13//13 18//18 17//17
f 12//12 21//21 22//22 13//13
f 16//16 23//23 21//21 12//12
f 24//24 25//25 23//23 16//16
f 18//18 26//26 27//27 19//19
f 13//13 22//22 26//26 18//18
f 28//28 11//11 14//14 29//29
f 30//30 15//15 11//11 28//28
f 29//29 14//14 17//17 31//31
f 21//21 32//32 33//33 22//22
f 23//23 34//34 32//32 21//21
f 25//25 35//35 34//34 23//23
f 26//26 36//36 37//37 27//27
f 22//22 33//33 36//36 26//26
f 9//9 10//10 38//38 39//39
f 40//40 41//41 42//42 43//43
f 41//41 44//44 45//45 42//42
f 39//39 38//38 46//46 47//47
f 48//48 49//49 50//50 51//51
f 52//52 53//53 54//54 55//55
f 51//51 50//50 56//56 57//57
f 55//55 54//54 58//58 59//59
f 60//60 56//56 61//61 62//62
f 24//24 16//16 15//15 63//63
f 63//63 15//15 30//30 64//64
f 65//65 66//66 67//67 68//68
f 68//68 67//67 69//69 70//70
f 70//70 69//69 8//8 7//7
f 71//71 72//72 66//66 65//65
f 73//73 74//74 75//75 76//76
f 77//77 73//73 76//76 78//78
f 79//79 80//80 81//81 82//82
f 74//74 79//79 82//82 75//75
f 76//76 75//75 83//83 84//84
f 78//78 76//76 84//84 85//85
f 24//24 78//78 85//85 25//25
f 82//82 81//81 86//86 87//87
f 75//75 82//82 87//87 83//83
f 88//88 89//89 74//74 73//73
f 90//90 88//88 73//73 77//77
f 89//89 91//91 79//79 74//74
f 84//84 83//83 92//92 93//93
f 85//85 84//84 93//93 94//94
f 25//25 85//85 94//94 35//35
f 87//87 86//86 95//95 96//96
f 83//83 87//87 96//96 92//92
f 71//71 97//97 98//98 72//72
f 99//99 100//100 101//101 102//102
f 102//102 101//101 103//103 104//104
f 97//97 105//105 106//106 98//98
f 107//107 108//108 109//109 110//110
f 111//111 112//112 113//113 114//114
f 108//108 115//115 116//116 109//109
f 112//112 117//117 118//118 113//113
f 60//60 62//62 119//119 116//116
f 63//63 77//77 78//78 24//24
f 64//64 90//90 77//77 63//63
f 3//3 28//28 29//29 4//4
f 6//6 30//30 28//28 3//3
f 8//8 64//64 30//30 6//6
f 4//4 29//29 31//31 10//10
f 10//10 31//31 40//40 38//38
f 38//38 40//40 43//43 46//46
f 53//53 48//48 51//51 54//54
f 66//66 89//89 88//88 67//67
f 67//67 88//88 90//90 69//69
f 69//69 90//90 64//64 8//8
f 72//72 91//91 89//89 66//66
f 98//98 99//99 91//91 72//72
f 114//114 107//107 100//100 106//106
f 113//113 108//108 107//107 114//114
f 120//120 121//121 115//115 118//118
f 120//120 58//58 57//57 121//121
f 2//2 1//1 122//122 123//122
f 5//5 2//2 123//122 124//122
f 7//7 5//5 124//122 125//122
f 1//1 9//9 126//122 122//122
f 9//9 39//39 127//123 126//122
f 39//39 47//47 128//124 127//123
f 52//52 55//55 129//125 130//126
f 55//55 59//59 131//125 129//125
f 65//65 68//68 132//122 133//122
f 68//68 70//70 134//122 132//122
f 70//70 7//7 125//122 134//122
f 71//71 65//65 133//122 135//122
f 97//97 71//71 135//122 136//127
f 111//111 105//105 137//128 138//129
f 112//112 111//111 138//129 139//125
f 140//130 117//117 141//125 142//125
f 19//19 143//131 144//132 20//20
f 27//27 145//133 143//131 19//19
f 37//37 146//134 145//133 27//27
f 44//44 147//135 148//136 45//45
f 56//56 60//60 121//121 57//57
f 58//58 120//120 140//130 59//59
f 56//56 50//50 49//49 61//61
f 58//58 54//54 51//51 57//57
f 59//59 140//130 142//125 131//125
f 80//80 144//132 143//131 81//81
f 81//81 143//131 145//133 86//86
f 86//86 145//133 146//134 95//95
f 119//119 62//62 148//136 103//103
f 115//115 121//121 60//60 116//116
f 117//117 140//130 120//120 118//118
f 119//119 110//110 109//109 116//116
f 115//115 108//108 113//113 118//118
f 117//117 112//112 139//125 141//125
f 136//127 135//122 149//122 150//137
f 138//129 137//128 151//138 152//139
f 139//125 138//129 152//139 153//125
f 142//125 141//125 139//125 153//125
f 154//122 133//122 132//122 155//122
f 149//122 135//122 133//122 154//122
f 132//122 134//122 125//122 155//122
f 125//122 124//122 123//122 155//122
f 155//122 123//122 122//122 154//122
f 154//122 122//122 126//122 149//122
f 149//122 126//122 127//123 150//137
f 150//137 127//123 128//124 151//138
f 152//139 130//126 129//125 153//125
f 153//125 129//125 131//125 142//125
f 42//42 49//49 48//48 43//43
f 45//45 61//61 49//49 42//42
f 46//46 53//53 52//52 47//47
f 100//100 107//107 110//110 101//101
f 101//101 110//110 119//119 103//103
f 105//105 111//111 114//114 106//106
f 43//43 48//48 53//53 46//46
f 100//100 99//99 98//98 106//106
f 47//47 52//52 130//126 128//124
f 105//105 97//97 136//127 137//128
f 148//136 62//62 61//61 45//45
f 148//136 147//135 104//104 103//103
f 137//128 136//127 150//137 151//138
f 128//124 130//126 152//139 151//138
f 17//17 41//41 40//40 31//31
f 91//91 99//99 102//102 79//79
f 144//132 147//135 44//44 20//20
f 79//79 102//102 104//104 80//80
f 20//20 44//44 41//41 17//17
f 80//80 104//104 147//135 144//132
f 33//140 156//141 157//142 32//143
f 32//143 157//142 158//144 34//145
f 34//145 158//144 159//146 35//147
f 37//148 160//149 161//150 162//151
f 36//152 163//153 156//141 33//140
f 93//154 164//155 165//156 92//157
f 94//158 166//159 164//155 93//154
f 35//147 159//146 166//159 94//158
f 95//160 167//161 168//162 146//163
f 92//157 165//156 169//164 96//165
f 96//165 169//164 167//161 95//160
f 156//141 170//166 171//167 157//142
f 157//142 171//167 172//168 158//144
f 158//144 172//168 173//169 159//146
f 160//149 174//170 175//171 161//150
f 163//153 176//172 170//166 156//141
f 164//155 177//173 178//174 165//156
f 166//159 179//175 177//173 164//155
f 159//146 173//169 179//175 166//159
f 167//161 180//176 181//177 168//162
f 165//156 178//174 182//178 169//164
f 169//164 182//178 180//176 167//161
f 183//179 184//180 185//181 186//182
f 187//183 188//184 189//185 190//186
f 191//187 192//188 193//189 194//190
f 189//185 188//184 191//187 194//190
f 195//191 196//192 197//193 198//194
f 197//193 199//195 200//196 198//194
f 201//197 196//192 195//191 202//198
f 199//195 183//179 186//182 200//196
f 203//199 204//200 205//201 206//202
f 206//202 205//201 201//197 202//198
f 204//200 203//199 207//203 208//204
f 208//204 207//203 193//189 192//188
f 187//183 190//186 209//205 210//206
f 210//206 209//205 185//181 184//180
f 211//207 212//208 213//209 214//210
f 215//211 216//212 217//213 218//214
f 219//215 220//216 221//217 222//218
f 223//219 224//220 225//221 226//222
f 227//223 228//224 229//225 230//226
f 231//227 232//228 233//229 234//230
f 228//224 219//215 222//218 229//225
f 224//220 231//227 234//230 225//221
f 235//231 236//232 237//233 238//234
f 239//235 240//236 241//237 242//238
f 243//239 235//231 238//234 244//240
f 240//236 245//241 246//242 241//237
f 236//232 247//243 248//244 237//233
f 249//245 239//235 242//238 250//246
f 212//208 243//239 244//240 213//209
f 245//241 215//211 218//214 246//242
f 251//247 252//248 253//249 254//250
f 255//251 256//252 257//253 258//254
f 247//243 251//247 254//250 248//244
f 256//252 249//245 250//246 257//253
f 259//255 255//251 258//254 260//256
f 252//248 261//257 262//258 253//249
f 232//228 259//255 260//256 233//229
f 261//257 227//223 230//226 262//258
f 263//259 223//219 226//222 264//260
f 220//216 265//261 266//262 221//217
f 216//212 263//259 264//260 217//213
f 265//261 211//207 214//210 266//262
f 183//179 212//208 211//207 184//180
f 185//181 216//212 215//211 186//182
f 187//183 220//216 219//215 188//184
f 189//185 224//220 223//219 190//186
f 191//187 228//224 227//223 192//188
f 193//189 232//228 231//227 194//190
f 188//184 219//215 228//224 191//187
f 194//190 231//227 224//220 189//185
f 196//192 236//232 235//231 197//193
f 198//194 240//236 239//235 195//191
f 197//193 235//231 243//239 199//195
f 200//196 245//241 240//236 198//194
f 201//197 247//243 236//232 196//192
f 195//191 239//235 249//245 202//198
f 199//195 243//239 212//208 183//179
f 186//182 215//211 245//241 200//196
f 204//200 252//248 251//247 205//201
f 206//202 256//252 255//251 203//199
f 205//201 251//247 247//243 201//197
f 202//198 249//245 256//252 206//202
f 203//199 255//251 259//255 207//203
f 208//204 261//257 252//248 204//200
f 207//203 259//255 232//228 193//189
f 192//188 227//223 261//257 208//204
f 190//186 223//219 263//259 209//205
f 210//206 265//261 220//216 187//183
f 209//205 263//259 216//212 185//181
f 184//180 211//207 265//261 210//206
f 267//263 268//264 269//265 270//266
f 267//263 271//267 272//268 268//264
f 273//269 274//270 275//271 276//272
f 273//269 269//265 277//273 278//274
f 274//270 273//269 278//274 279//275
f 268//264 272//268 280//276 281//277
f 281//277 282//278 283//279 277//273
f 278//274 284//280 285//281 279//275
f 280//276 286//282 282//278 281//277
f 287//283 288//284 289//285 290//286
f 269//265 273//269 276//272 270//266
f 269//265 268//264 281//277 277//273
f 289//285 288//284 284//280 283//279
f 289//285 291//287 292//288 290//286
f 282//278 291//287 289//285 283//279
f 284//280 288//284 287//283 285//281
f 286//282 292//288 291//287 282//278
f 284//280 278//274 277//273 283//279
f 293//289 294//290 295//291 296//292
f 296//292 295//291 297//293 298//294
f 294//290 293//289 299//295 300//296
f 293//289 296//292 301//297 302//298
f 295//291 294//290 303//299 304//300
f 296//292 298//294 305//301 301//297
f 297//293 295//291 304//300 306//302
f 307//303 308//304 309//305 310//306
f 311//307 312//308 313//309 314//310
f 294//290 300//296 315//311 303//299
f 299//295 293//289 302//298 316//312
f 297//293 317//313 318//314 298//294
f 299//295 319//315 320//316 300//296
f 298//294 318//314 321//317 305//301
f 308//304 317//313 322//318 309//305
f 300//296 320//316 323//319 315//311
f 312//308 319//315 324//320 313//309
f 317//313 308//304 307//303 318//314
f 319//315 312//308 311//307 320//316
f 318//314 307//303 310//306 321//317
f 317//313 297//293 306//302 322//318
f 320//316 311//307 314//310 323//319
f 319//315 299//295 316//312 324//320
f 325//321 326//322 327//323 328//324
f 329//325 330//326 331//327 332//328
f 325//321 328//324 333//329 334//330
f 335//331 336//332 337//333 338//334
f 329//325 332//328 339//335 340//336
f 341//337 342//338 343//339 344//340
f 341//337 345//341 346//342 342//338
f 347//343 336//332 335//331 348//344
f 327//323 349//345 350//346 328//324
f 329//325 351//347 352//348 330//326
f 328//324 350//346 353//349 333//329
f 336//332 351//347 354//350 337//333
f 349//345 348//344 335//331 350//346
f 351//347 336//332 347//343 352//348
f 350//346 335//331 338//334 353//349
f 351//347 329//325 340//336 354//350
f 325//321 355//351 356//352 326//322
f 331//327 357//353 358//354 332//328
f 342//338 355//351 359//355 343//339
f 332//328 358//354 360//356 339//335
f 355//351 342//338 346//342 356//352
f 357//353 345//341 341//337 358//354
f 355//351 325//321 334//330 359//355
f 358//354 341//337 344//340 360//356
f 361//357 362//358 363//359 364//360
f 365//361 366//362 362//358 361//357
f 364//360 363//359 367//363 368//364
f 369//365 370//366 366//362 365//361
f 371//367 372//368 373//369 374//370
f 375//371 376//372 377//373 378//374
f 378//374 377//373 379//375 380//376
f 381//377 382//378 383//379 384//380
f 382//378 381//377 376//372 375//371
f 380//376 379//375 370//366 369//365
f 374//370 373//369 385//381 386//382
f 384//380 383//379 372//368 371//367
f 368//364 367//363 386//382 385//381
f 387//383 388//384 389//385 390//386
f 391//387 392//388 393//389 394//390
f 388//384 395//391 396//392 389//385
f 397//393 391//387 394//390 398//394
f 399//395 387//383 390//386 400//396
f 392//388 401//397 402//398 393//389
f 395//391 403//399 404//400 396//392
f 405//401 397//393 398//394 406//402
f 407//403 408//404 409//405 410//406
f 411//407 412//408 413//409 414//410
f 415//411 416//412 417//413 418//414
f 419//415 420//416 421//417 422//418
f 423//419 415//411 418//414 424//420
f 420//416 425//421 426//422 421//417
f 427//423 428//424 429//425 430//426
f 431//427 432//428 433//429 434//430
f 416//412 431//427 434//430 417//413
f 428//424 419//415 422//418 429//425
f 403//399 423//419 424//420 404//400
f 425//421 405//401 406//402 426//422
f 435//431 407//403 410//406 436//432
f 412//408 437//433 438//434 413//409
f 408//404 427//423 430//426 409//405
f 432//428 411//407 414//410 433//429
f 437//433 399//395 400//396 438//434
f 401//397 435//431 436//432 402//398
f 362//358 388//384 387//383 363//359
f 364//360 392//388 391//387 361//357
f 366//362 395//391 388//384 362//358
f 361//357 391//387 397//393 365//361
f 363//359 387//383 399//395 367//363
f 368//364 401//397 392//388 364//360
f 370//366 403//399 395//391 366//362
f 365//361 397//393 405//401 369//365
f 372//368 408//404 407//403 373//369
f 374//370 412//408 411//407 371//367
f 376//372 416//412 415//411 377//373
f 378//374 420//416 419//415 375//371
f 377//373 415//411 423//419 379//375
f 380//376 425//421 420//416 378//374
f 382//378 428//424 427//423 383//379
f 384//380 432//428 431//427 381//377
f 381//377 431//427 416//412 376//372
f 375//371 419//415 428//424 382//378
f 379//375 423//419 403//399 370//366
f 369//365 405//401 425//421 380//376
f 373//369 407//403 435//431 385//381
f 386//382 437//433 412//408 374//370
f 383//379 427//423 408//404 372//368
f 371//367 411//407 432//428 384//380
f 367//363 399//395 437//433 386//382
f 385//381 435//431 401//397 368//364
f 439//435 440//436 441//437 442//438
f 443//439 444//440 440//436 439//435
f 442//438 441//437 445//441 446//442
f 446//442 445//441 447//443 448//444
f 449//445 450//446 451//447 452//448
f 452//448 451//447 453//449 454//450
f 455//451 456//452 450//446 449//445
f 448//444 447//443 456//452 455//451
f 454//450 453//449 457//453 458//454
f 458//454 457//453 444//440 443//439
f 459//455 460//456 461//125 462//125
f 461//125 460//456 463//457 464//458
f 465//459 466//460 459//455 462//125
f 464//458 467//461 468//462 461//125
f 461//125 468//462 469//463 462//125
f 462//125 469//463 470//464 465//459
f 440//436 469//463 468//462 441//437
f 444//440 470//464 469//463 440//436
f 441//437 468//462 467//461 445//441
f 445//441 467//461 464//458 447//443
f 450//446 460//456 459//455 451//447
f 451//447 459//455 466//460 453//449
f 456//452 463//457 460//456 450//446
f 447//443 464//458 463//457 456//452
f 453//449 466//460 465//459 457//453
f 457//453 465//459 470//464 444//440
f 471//465 472//466 473//467 474//468
f 475//469 476//470 477//471 478//472
f 478//472 477//471 472//466 471//465
f 472//466 479//473 480//474 473//467
f 476//470 481//475 482//476 477//471
f 477//471 482//476 479//473 472//466
f 479//473 483//477 484//478 480//474
f 481//475 485//479 486//480 482//476
f 482//476 486//480 483//477 479//473
f 487//481 488//482 489//483 490//484
f 491//485 492//486 493//487 494//488
f 494//488 493//487 488//482 487//481
f 488//482 495//489 496//490 489//483
f 492//486 497//491 498//492 499//493 493//487
f 493//487 499//493 495//489 488//482
f 495//489 500//494 501//495 496//490
f 498//492 502//496 503//497 499//493
f 499//493 503//497 500//494 495//489
f 500//494 504//498 505//499 501//495
f 502//496 506//500 507//501 503//497
f 503//497 507//501 504//498 500//494
f 504//498 508//502 509//503 505//499
f 506//500 510//504 511//505 507//501
f 507//501 511//505 508//502 504//498
f 508//502 512//506 513//507 509//503
f 510//504 514//508 515//509 511//505
f 511//505 515//509 512//506 508//502
f 512//506 516//510 517//511 513//507
f 514//508 518//512 519//513 515//509
f 515//509 519//513 516//510 512//506
f 520//514 521//515 522//516 523//517
f 524//125 525//125 526//518 527//519
f 527//519 526//518 521//515 520//514
f 521//515 528//520 529//521 522//516
f 525//125 530//125 531//522 526//518
f 526//518 531//522 528//520 521//515
f 532//523 533//524 534//525 535//526
f 536//125 537//125 538//527 539//528
f 539//528 538//527 533//524 532//523
f 540//529 541//530 542//531 543//532
f 544//125 545//125 546//533 547//534
f 547//534 546//533 541//530 540//529
f 541//530 548//535 549//536 542//531
f 545//125 550//537 551//538 546//533
f 546//533 551//538 548//535 541//530
f 552//539 553//540 554//541 555//542
f 556//543 557//544 558//545 559//546
f 559//546 558//545 553//540 552//539
f 553//540 560//547 561//548 554//541
f 557//544 562//549 563//550 558//545
f 558//545 563//550 560//547 553//540
f 560//547 471//465 474//468 561//548
f 562//549 475//469 478//472 563//550
f 563//550 478//472 471//465 560//547
f 557//544 556//543 564//551 565//552
f 562//549 557//544 565//552 566//553
f 475//469 562//549 566//553 567//554
f 475//469 567//554 568//122 476//470
f 569//125 570//125 537//125 536//125
f 536//125 530//125 571//125 569//125
f 569//125 571//125 572//555 573//556
f 574//557 575//558 576//552 577//552
f 577//552 576//552 578//559 579//560
f 579//560 578//559 580//561 581//562
f 581//562 580//561 502//496 498//492 497//491 582//122
f 497//491 492//486 491//485 582//122
f 582//122 491//485 485//479 568//122
f 483//477 487//481 490//484 484//478
f 485//479 491//485 494//488 486//480
f 486//480 494//488 487//481 483//477
f 533//524 540//529 543//532 534//525
f 537//125 544//125 547//534 538//527
f 538//527 547//534 540//529 533//524
f 570//125 569//125 573//556 583//563
f 564//551 574//557 577//552 565//552
f 565//552 577//552 579//560 566//553
f 566//553 579//560 581//562 567//554
f 567//554 581//562 582//122 568//122
f 570//125 545//125 544//125 537//125
f 485//479 481//475 476//470 568//122
f 528//520 532//523 535//526 529//521
f 530//125 536//125 539//528 531//522
f 531//522 539//528 532//523 528//520
f 530//125 525//125 524//125 571//125
f 571//125 524//125 518//512 572//555
f 575//558 514//508 510//504 576//552
f 576//552 510//504 506//500 578//559
f 578//559 506//500 502//496 580//561
f 516//510 520//514 523//517 517//511
f 518//512 524//125 527//519 519//513
f 519//513 527//519 520//514 516//510
f 548//535 552//539 555//542 549//536
f 550//537 556//543 559//546 551//538
f 551//538 559//546 552//539 548//535
f 550//537 545//125 570//125 583//563
f 572//555 518//512 514//508 575//558
f 573//556 572//555 575//558 574//557
f 583//563 573//556 574//557 564//551
f 550//537 583//563 564//551 556//543
f 161//150 163//153 36//152 162//151
f 175//171 176//172 163//153 161//150
