# Blender MTL File: 'None'
# Material Count: 1

newmtl 04___Default
Ns 10.000002
Ka 1.000000 1.000000 1.000000
Kd 0.588200 0.588200 0.588200
Ks 0.000000 0.000000 0.000000
Ke 0.0 0.0 0.0
Ni 1.500000
d 1.000000
illum 1
map_Kd storeDiffuseMap.jpg
