# 3ds Max Wavefront OBJ Exporter v0.97b - (c)2007 guruware
# File Created: 22.12.2019 16:39:40

newmtl Rum
	Ns 0.0000
	Ni 1.5000
	d 1.0000
	Tr 0.0000
	Tf 1.0000 1.0000 1.0000 
	illum 2
	Ka 0.3490 0.3294 0.3059
	Kd 0.3490 0.3294 0.3059
	Ks 0.0000 0.0000 0.0000
	Ke 0.0000 0.0000 0.0000
